…
## Prepare data sets for join

Check how many states are included in each data set.


```r
# Census data
census_data %>% 
  group_by(State) %>% 
  summarise(n = n())
```

```
## # A tibble: 52 x 2
##    State                    n
##    <chr>                <int>
##  1 Alabama                 67
##  2 Alaska                  29
##  3 Arizona                 15
##  4 Arkansas                75
##  5 California              58
##  6 Colorado                64
##  7 Connecticut              8
##  8 Delaware                 3
##  9 District of Columbia     1
## 10 Florida                 67
## # ... with 42 more rows
```

```r
# Election data
election_data %>% 
  group_by(state_abbr) %>% 
  summarise(n = n())
```

```
## # A tibble: 51 x 2
##    state_abbr     n
##    <chr>      <int>
##  1 AK            29
##  2 AL            67
##  3 AR            75
##  4 AZ            15
##  5 CA            58
##  6 CO            64
##  7 CT             8
##  8 DC             1
##  9 DE             3
## 10 FL            67
## # ... with 41 more rows
```
…
I have no idea why there is one more Hawaii county in the census data. The data
from Alaska seems different between the two data sets.

## Alaska!


```r
# Filter for Alaska
data %>% 
  filter(State == "Alaska")
```

```
## # A tibble: 28 x 46
##    CensusId State County TotalPop    Men  Women Hispanic White Black Native
##       <dbl> <chr> <chr>     <dbl>  <dbl>  <dbl>    <dbl> <dbl> <dbl>  <dbl>
##  1     2013 Alas~ Aleut~     3304   2198   1106     12    15     9.2   29  
##  2     2016 Alas~ Aleut~     5684   3393   2291     11    27.8   4.6   12.9
##  3     2020 Alas~ Ancho~   299107 153122 145985      8.6  60.3   5.5    6.3
##  4     2050 Alas~ Bethe~    17776   9351   8425      1.8  11.3   0.8   80.6
##  5     2060 Alas~ Brist~      970    553    417      7.1  53.4   0.5   29  
##  6     2068 Alas~ Denal~     2060   1126    934      2.6  84.7   0.6    3.5
##  7     2070 Alas~ Dilli~     4979   2589   2390      2.9  17.7   0.3   71.7
##  8     2090 Alas~ Fairb~    99705  53477  46228      7.4  71.9   4.1    5.7
##  9     2100 Alas~ Haine~     2560   1387   1173      1.5  79.6   0      6.4
## 10     2105 Alas~ Hoona~     2128   1129    999      2.2  49.3   2.2   32.4
## # ... with 18 more rows, and 36 more variables: Asian <dbl>, Pacific <dbl>,
## #   Citizen <dbl>, Income <dbl>, IncomeErr <dbl>, IncomePerCap <dbl>,
## #   IncomePerCapErr <dbl>, Poverty <dbl>, ChildPoverty <dbl>,
## #   Professional <dbl>, Service <dbl>, Office <dbl>, Construction <dbl>,
## #   Production <dbl>, Drive <dbl>, Carpool <dbl>, Transit <dbl>, Walk <dbl>,
## #   OtherTransp <dbl>, WorkAtHome <dbl>, MeanCommute <dbl>, Employed <dbl>,
## #   PrivateWork <dbl>, PublicWork <dbl>, SelfEmployed <dbl>, FamilyWork <dbl>,
## #   Unemployment <dbl>, votes_dem <dbl>, votes_gop <dbl>, total_votes <dbl>,
## #   per_dem <dbl>, per_gop <dbl>, diff <dbl>, per_point_diff <chr>,
…
Our final dataset includes `50` states including District of Colombia and
`3112` observations and `46` columns. 

# Create binary column for who one each country

For later machine learning purposes.


```r
tidy_data %>% 
  mutate(won = if_else(votes_gop > votes_dem, "Trump", "Clinton"))
```

```
## # A tibble: 3,112 x 47
##    CensusId State County TotalPop   Men Women Hispanic White Black Native Asian
##       <dbl> <chr> <chr>     <dbl> <dbl> <dbl>    <dbl> <dbl> <dbl>  <dbl> <dbl>
##  1     1001 Alab~ Autau~    55221 26745 28476      2.6  75.8  18.5    0.4   1  
##  2     1003 Alab~ Baldw~   195121 95314 99807      4.5  83.1   9.5    0.6   0.7
##  3     1005 Alab~ Barbo~    26932 14497 12435      4.6  46.2  46.7    0.2   0.4
##  4     1007 Alab~ Bibb      22604 12073 10531      2.2  74.5  21.4    0.4   0.1
##  5     1009 Alab~ Blount    57710 28512 29198      8.6  87.9   1.5    0.3   0.1
##  6     1011 Alab~ Bullo~    10678  5660  5018      4.4  22.2  70.7    1.2   0.2
##  7     1013 Alab~ Butler    20354  9502 10852      1.2  53.3  43.8    0.1   0.4
##  8     1015 Alab~ Calho~   116648 56274 60374      3.5  73    20.3    0.2   0.9
##  9     1017 Alab~ Chamb~    34079 16258 17821      0.4  57.3  40.3    0.2   0.8
## 10     1019 Alab~ Chero~    26008 12975 13033      1.5  91.7   4.8    0.6   0.3
## # ... with 3,102 more rows, and 36 more variables: Pacific <dbl>,
## #   Citizen <dbl>, Income <dbl>, IncomeErr <dbl>, IncomePerCap <dbl>,
## #   IncomePerCapErr <dbl>, Poverty <dbl>, ChildPoverty <dbl>,
## #   Professional <dbl>, Service <dbl>, Office <dbl>, Construction <dbl>,
## #   Production <dbl>, Drive <dbl>, Carpool <dbl>, Transit <dbl>, Walk <dbl>,
## #   OtherTransp <dbl>, WorkAtHome <dbl>, MeanCommute <dbl>, Employed <dbl>,
## #   PrivateWork <dbl>, PublicWork <dbl>, SelfEmployed <dbl>, FamilyWork <dbl>,
## #   Unemployment <dbl>, votes_dem <dbl>, votes_gop <dbl>, total_votes <dbl>,
## #   per_dem <dbl>, per_gop <dbl>, diff <dbl>, per_point_diff <chr>,
…
